Test Machine Learing with the Data FISH
…
brief(Fish)

## # A tibble: 159 x 7
##    Species Weight Length1 Length2 Length3 Height Width
##    <chr>    <dbl>   <dbl>   <dbl>   <dbl>  <dbl> <dbl>
##  1 Bream      242    23.2    25.4    30     11.5  4.02
##  2 Bream      290    24      26.3    31.2   12.5  4.31
##  3 Bream      340    23.9    26.5    31.1   12.4  4.70
##  4 Bream      363    26.3    29      33.5   12.7  4.46
##  5 Bream      430    26.5    29      34     12.4  5.13
##  6 Bream      450    26.8    29.7    34.7   13.6  4.93
##  7 Bream      500    26.8    29.7    34.5   14.2  5.28
##  8 Bream      390    27.6    30      35     12.7  4.69
##  9 Bream      450    27.6    30      35.1   14.0  4.84
## 10 Bream      500    28.5    30.7    36.2   14.2  4.96
## # ... with 149 more rows
…
